<?xml version="1.0" encoding="UTF-8"?>
<session version="1.0">
<refactoring comment="Move element &apos;YoutubeWindow.java&apos; to &apos;ViMu_Implementierung/src/vimu.application.gui&apos;&#x0D;&#x0A;- Original project: &apos;ViMu_Implementierung&apos;&#x0D;&#x0A;- Destination element: &apos;ViMu_Implementierung/src/vimu.application.gui&apos;&#x0D;&#x0A;- Original element: &apos;vimu.application.controller.YoutubeWindow.java&apos;&#x0D;&#x0A;- Update references to refactored element" description="Move compilation unit" destination="/src&lt;vimu.application.gui" element1="/src&lt;vimu.application.controller{YoutubeWindow.java" files="0" flags="589830" folders="0" id="org.eclipse.jdt.ui.move" patterns="*" policy="org.eclipse.jdt.ui.moveResources" qualified="false" references="true" stamp="1492622456362" units="1" version="1.0"/>
</session>